Reading in Files from DHS • DHSHarmonization
…
ex_data <- here("data", "DHS Data", "DHS 1992", "MDIR21FL")
temp_zip <- tempfile(fileext = ".zip")

zip::zipr(zipfile = temp_zip, files = list.files(ex_data, full.names = TRUE))
file.exists(temp_zip)
#> [1] TRUE

dhs_data <- rdhs:::read_dhs_flat(temp_zip)
tibble(dhs_data)
#> # A tibble: 6,260 × 2,347
#>    caseid     v000   v001  v002  v003  v004   v005  v006  v007  v008  v009  v010
#>    <chr>      <chr> <int> <int> <int> <int>  <int> <int> <int> <int> <int> <int>
#>  1 "        … MD2       1     1     6     1 1.26e6     6    92  1110     2    70
#>  2 "        … MD2       1     1     8     1 1.26e6     6    92  1110     6    73
#>  3 "        … MD2       1     1     9     1 1.26e6     6    92  1110     1    75
#>  4 "        … MD2       1     2     2     1 1.26e6     6    92  1110    11    63
#>  5 "        … MD2       1     3     2     1 1.26e6     6    92  1110     7    55
#>  6 "        … MD2       1     3     3     1 1.26e6     6    92  1110     3    77
#>  7 "        … MD2       1     4     2     1 1.26e6     6    92  1110     8    67
#>  8 "        … MD2       1     5     1     1 1.26e6     6    92  1110     7    53
#>  9 "        … MD2       1     6     2     1 1.26e6     6    92  1110    11    53
#> 10 "        … MD2       1     6     3     1 1.26e6     6    92  1110     9    69
#> # ℹ 6,250 more rows
#> # ℹ 2,335 more variables: v011 <int>, v012 <int>, v013 <int+lbl>,
#> #   v014 <int+lbl>, v015 <int+lbl>, v016 <int>, v017 <int>, v018 <int+lbl>,
#> #   v019 <int+lbl>, v020 <int+lbl>, v021 <int>, v022 <int>, v023 <int+lbl>,
#> #   v024 <int+lbl>, v025 <int+lbl>, v026 <int+lbl>, v027 <int>, v028 <int>,
#> #   v029 <int>, v101 <int+lbl>, v102 <int+lbl>, v103 <int+lbl>, v104 <int+lbl>,
#> #   v105 <int+lbl>, v106 <int+lbl>, v107 <int>, v108 <int+lbl>, …
…
Because the different kinds of surveys have different variable structures, we will read each type separately.

To do this, we’ll read in a list of file paths, and then map over them to read them in.

In the targets pipeline, we’ve assigned the BR files to a target called dhs_data_BR, which has multiple branches for each file path.

tar_read(dhs_data_BR, branches = 1, store = here("_targets")) -> ex_data_1
tar_read(dhs_data_BR, branches = 5, store = here("_targets")) -> ex_data_2

tibble(ex_data_1[[1]])
#> # A tibble: 18,931 × 580
#>    caseid      bidx v000   v001  v002  v003  v004   v005  v006  v007  v008  v009
#>    <chr>      <int> <chr> <int> <int> <int> <int>  <int> <int> <int> <int> <int>
#>  1 "        …     1 MD2       1     2     2     1 1.26e6     6    92  1110    11
#>  2 "        …     2 MD2       1     2     2     1 1.26e6     6    92  1110    11
#>  3 "        …     3 MD2       1     2     2     1 1.26e6     6    92  1110    11
#>  4 "        …     4 MD2       1     2     2     1 1.26e6     6    92  1110    11
#>  5 "        …     1 MD2       1     3     2     1 1.26e6     6    92  1110     7
#>  6 "        …     2 MD2       1     3     2     1 1.26e6     6    92  1110     7
#>  7 "        …     3 MD2       1     3     2     1 1.26e6     6    92  1110     7
#>  8 "        …     4 MD2       1     3     2     1 1.26e6     6    92  1110     7
#>  9 "        …     5 MD2       1     3     2     1 1.26e6     6    92  1110     7
#> 10 "        …     6 MD2       1     3     2     1 1.26e6     6    92  1110     7
#> # ℹ 18,921 more rows
#> # ℹ 568 more variables: v010 <int>, v011 <int>, v012 <int>, v013 <int+lbl>,
#> #   v014 <int+lbl>, v015 <int+lbl>, v016 <int>, v017 <int>, v018 <int+lbl>,
#> #   v019 <int+lbl>, v020 <int+lbl>, v021 <int>, v022 <int>, v023 <int+lbl>,
#> #   v024 <int+lbl>, v025 <int+lbl>, v026 <int+lbl>, v027 <int>, v028 <int+lbl>,
#> #   v029 <int+lbl>, v101 <int+lbl>, v102 <int+lbl>, v103 <int+lbl>,
#> #   v104 <int+lbl>, v105 <int+lbl>, v106 <int+lbl>, v107 <int+lbl>, …

tibble(ex_data_2[[1]])
#> # A tibble: 47,720 × 1,162
#>    caseid      bidx v000   v001  v002  v003  v004   v005  v006  v007  v008 v008a
#>    <chr>      <int> <chr> <int> <int> <int> <int>  <int> <int> <int> <int> <int>
#>  1 "       1…     1 MD7       1    10     2     1 733467     3  2021  1455 44259
#>  2 "       1…     2 MD7       1    10     2     1 733467     3  2021  1455 44259
#>  3 "       1…     1 MD7       1    16     1     1 733467     3  2021  1455 44262
#>  4 "       1…     1 MD7       1    23     2     1 733467     3  2021  1455 44261
#>  5 "       1…     2 MD7       1    23     2     1 733467     3  2021  1455 44261
#>  6 "       1…     3 MD7       1    23     2     1 733467     3  2021  1455 44261
#>  7 "       1…     1 MD7       1    30     2     1 733467     3  2021  1455 44263
#>  8 "       1…     1 MD7       1    45     2     1 733467     3  2021  1455 44259
#>  9 "       1…     2 MD7       1    45     2     1 733467     3  2021  1455 44259
#> 10 "       1…     1 MD7       1    52     2     1 733467     3  2021  1455 44259
#> # ℹ 47,710 more rows
#> # ℹ 1,150 more variables: v009 <int>, v010 <int>, v011 <int>, v012 <int>,
#> #   v013 <int+lbl>, v014 <int+lbl>, v015 <int+lbl>, v016 <int>, v017 <int>,
#> #   v018 <int+lbl>, v019 <int+lbl>, v019a <int+lbl>, v020 <int+lbl>,
#> #   v021 <int>, v022 <int>, v023 <int>, v024 <int+lbl>, v025 <int+lbl>,
#> #   v026 <int+lbl>, v027 <int+lbl>, v028 <int>, v029 <int>, v030 <int>,
#> #   v031 <int>, v032 <int>, v034 <int+lbl>, v040 <int+lbl>, v042 <int+lbl>, …
…
